…
``` r
library(p8105.datasets)
data("brfss_smart2010") 
```

``` r
brfss_smart2010 %>% 
  janitor::clean_names() %>% 
  filter(topic == "Overall Health",
         response == "Excellent" | response == "Very good" | response == "Good" | response == "Fair" | response == "Poor") %>% 
  mutate(response = forcats::fct_relevel(response, c("Poor", "Fair", "Good", "Very good", "Excellent"))
  ) 
```

    ## # A tibble: 10,625 × 23
    ##     year locationabbr locationdesc  class  topic  question  response sample_size
    ##    <int> <chr>        <chr>         <chr>  <chr>  <chr>     <fct>          <int>
    ##  1  2010 AL           AL - Jeffers… Healt… Overa… How is y… Excelle…          94
    ##  2  2010 AL           AL - Jeffers… Healt… Overa… How is y… Very go…         148
    ##  3  2010 AL           AL - Jeffers… Healt… Overa… How is y… Good             208
    ##  4  2010 AL           AL - Jeffers… Healt… Overa… How is y… Fair             107
    ##  5  2010 AL           AL - Jeffers… Healt… Overa… How is y… Poor              45
    ##  6  2010 AL           AL - Mobile … Healt… Overa… How is y… Excelle…          91
    ##  7  2010 AL           AL - Mobile … Healt… Overa… How is y… Very go…         177
    ##  8  2010 AL           AL - Mobile … Healt… Overa… How is y… Good             224
    ##  9  2010 AL           AL - Mobile … Healt… Overa… How is y… Fair             120
    ## 10  2010 AL           AL - Mobile … Healt… Overa… How is y… Poor              66
    ## # … with 10,615 more rows, and 15 more variables: data_value <dbl>,
    ## #   confidence_limit_low <dbl>, confidence_limit_high <dbl>,
    ## #   display_order <int>, data_value_unit <chr>, data_value_type <chr>,
    ## #   data_value_footnote_symbol <chr>, data_value_footnote <chr>,
    ## #   data_source <chr>, class_id <chr>, topic_id <chr>, location_id <chr>,
    ## #   question_id <chr>, respid <chr>, geo_location <chr>
