…
    ## Warning: Expected 2 pieces. Additional pieces discarded in 785 rows [1, 2, 3, 4,
    ## 5, 6, 7, 8, 9, 10, 11, 12, 13, 14, 15, 16, 17, 18, 19, 20, ...].

    ## # A tibble: 36 × 2
    ## # Groups:   state [36]
    ##    state n_locations
    ##    <chr>       <int>
    ##  1 PA             50
    ##  2 MA             40
    ##  3 NJ             40
    ##  4 CT             35
    ##  5 FL             35
    ##  6 NC             35
    ##  7 MD             30
    ##  8 NH             25
    ##  9 NY             25
    ## 10 UT             25
    ## # … with 26 more rows
…
    ## Warning: Expected 2 pieces. Additional pieces discarded in 1510 rows [1, 2, 3,
    ## 4, 5, 6, 7, 8, 9, 10, 11, 12, 13, 14, 15, 16, 17, 18, 19, 20, ...].

    ## # A tibble: 45 × 2
    ## # Groups:   state [45]
    ##    state n_locations
    ##    <chr>       <int>
    ##  1 FL            205
    ##  2 NJ             95
    ##  3 TX             80
    ##  4 CA             60
    ##  5 MD             60
    ##  6 NC             60
    ##  7 NE             50
    ##  8 WA             50
    ##  9 MA             45
    ## 10 NY             45
    ## # … with 35 more rows
…
Aggregate over data for total activity for entire day

-   making table for aggregated activity `minute_1:minute_1440`

``` r
accel_df %>% 
  rowwise() %>% 
  mutate(total_activity = sum(c_across(minute_1:minute_1440), na.rm = TRUE)) %>%
  select(day_id, day, total_activity)
```

    ## # A tibble: 35 × 3
    ## # Rowwise: 
    ##    day_id day       total_activity
    ##     <dbl> <chr>              <dbl>
    ##  1      1 Friday           480543.
    ##  2      2 Monday            78828.
    ##  3      3 Saturday         376254 
    ##  4      4 Sunday           631105 
    ##  5      5 Thursday         355924.
    ##  6      6 Tuesday          307094.
    ##  7      7 Wednesday        340115.
    ##  8      8 Friday           568839 
    ##  9      9 Monday           295431 
    ## 10     10 Saturday         607175 
    ## # … with 25 more rows
…
